[
    {
        "apiVersion": "alauda.io/v1",
        "kind": "Subnet",
        "metadata": {
            "name": "$subnet_name",
            "selfLink": "/apis/alauda.io/v1/subnets/$subnet_name"
        },
        "spec": {
            "cidr_block": "$cidr",
            "ipip_mode": "CrossSubnet",
            "nat_outgoing": false,
            "subnet_name": "$subnet_name"
        }
    }
]